 1.45D+06,9.35D+04,-5.86D+04,1.0D+00					A,EA,DELTAH,ORDER
 5.2D-02,2.55D+06								SVU,RHOCP
 1.0D-08,1.0D-12,10000							RTOL,ATOL,IWORK(6)
 2.0D-04,1.0D-08,6							DELTAX,EPS,NVALVE
 3.0D+03,3.10D+02,3.60D+02,1.0D-01					CI,TIINI,TIEND,DTI
 0.00D+02,6.00D+02,6.70D+02,1.0D-01					CI,TIINI,TIEND,DTI


-----------------------------------------------------

C	A-------prefactor in the rate expression, 1/s
C	ATOL----absolate tolerance parameter (scalar or array) (see DLSODE.FOR)
C	B-------heat-of-reaction parameter
C	CI------initial concentration of acetic anhydride, mol/m3
C	CTMP----conversion value at temperature maximum
C	DELTAH--heat of reation, J/mol
C	DELTAX--dimensionless time step for the integration
C	DTI-----variation step of TI
C	EA------activation energy, J/mol
C	EPS-----tolerance for finding the temperature maximum
C	GAMMA---dimensionless activation energy
C	IWORK---integer work array of length at least (see DLSODE.FOR)
C	ORDER---reaction order
C	PSI-----Semenov number
C	RHOCP---heat capacity, J/m3/K
C	RTOL----relative tolerance parameter (scalar) (see DLSODE.FOR)
C	STNTMP--normalized sensitivity of the temperature maximum
C	SVU-----overall heat transfer coefficient, J/m3/s/K
C	TEMP----temperature maximum, K
C	TCO-----coolant temperature in the coil, K
C	THETACO-dimensionless coolant temperature in the coil
C	TI------initial temperature in the reactor, K
C	TIEND---upper limit of TI values for computing normalized sensitivity value
C	TIINI---lower limit of TI values for computing normalized sensitivity value