30,29,35,33,28,28,30,31,31,32,31,34,36,35,37,30,35,31,36,34,27,33,29,30,32,30,31,33,28,25,29,31,35,31,39,34,38,36,30,39,37,34,36,36,38,36,40,38,42,38,41,35,33,39,36,38,34,42,42,36,48,63,60,84,73,82,97,88,90,95,115,98,103,103,94,103,107,123,128,95,101,121,115,158,118,119,134,127,137,135,183,276,258,276,236,456,372,402,439,427,464,484,495,539,451,568,416,600,581,596,694,525,589,573,598,702,801,678,757,721
30,33,31,30,27,31,35,30,27,33,32,30,34,31,29,34,34,28,33,36,37,32,35,32,34,31,31,29,36,23,38,37,38,45,41,39,42,48,51,53,53,52,50,57,58,62,58,64,66,63,66,59,64,65,67,59,60,56,66,63,91,89,105,132,182,211,212,247,259,263,286,324,343,328,326,330,377,387,429,377,422,408,421,421,427,432,404,379,421,442,420,485,595,873,1009,1189,1241,1301,1597,1638,1892,1901,2007,2160,2318,2337,2558,2498,2454,2403,2704,2602,2627,2467,2479,2657,2703,2501,2529,2644
30,37,31,32,30,33,23,32,25,27,29,32,33,26,29,35,29,34,31,30,32,30,33,32,33,30,34,39,29,30,31,32,40,38,43,43,55,55,57,62,63,67,73,73,71,70,79,68,75,78,80,72,77,75,69,72,77,73,80,78,81,93,144,179,216,249,294,336,384,397,424,478,487,498,516,555,582,602,596,587,594,621,577,639,645,643,651,646,629,655,346,501,795,1227,1524,1620,2096,1953,2469,2654,2853,2975,3004,3296,3256,3501,3406,3855,3802,3895,3857,3874,4013,4041,3972,4427,4052,4498,4317,4285
32,30,30,25,33,30,33,33,36,34,31,28,29,28,31,35,33,33,33,28,31,33,31,30,36,30,29,32,30,27,31,42,40,41,47,55,58,63,63,69,71,67,79,79,80,85,84,88,104,97,107,109,98,96,101,98,99,101,101,102,78,134,192,220,257,328,355,409,471,481,526,581,598,642,648,745,758,789,907,900,863,947,929,929,916,940,929,959,1021,965,348,691,972,1348,1741,1897,2433,2357,2864,3495,3233,3866,3993,4345,4302,4531,4942,5211,5934,5644,5988,5905,5813,5934,5844,5791,6123,6339,6187,6184

