27,32,31,31,31,32,33,26,35,29,32,28,27,29,31,30,30,30,30,28,31,26,30,33,29,35,34,25,32,30,34,33,28,30,36,35,29,25,47,45,54,45,53,43,50,46,48,47,59,60,68,66,65,67,85,80,75,81,79,80,89,90,91,95,97,95,107,103,109,98,102,110,108,115,104,109,211,194,233,242,241,254,292,287,362,350,375,402,434,470,495,559,544,595,612,626,700,685,736,750,750,793,802,876,885,912,978,985,970,1011,1059,1032,1059,1082,1181,1163,1411,1442,1343,1604,1874,2017,2011,2253,2402,2641,2670,3066,3019,3400,3350,3679,3996,4130,4388,4461,4763,4949,5386,5041,5385,5885,5869,5909,6186,6133,6507,6549,6475,6768,7092,6992
29,32,32,29,32,30,25,31,28,28,30,33,30,31,34,32,33,28,33,27,33,37,33,30,31,33,37,31,26,33,30,31,35,34,29,30,36,34,36,37,42,44,56,48,54,63,74,87,92,105,106,119,124,129,139,149,151,159,156,166,170,163,168,161,162,164,158,157,160,163,156,144,158,152,145,152,179,188,199,220,250,321,400,453,613,753,807,944,1088,1134,1200,1326,1479,1522,1627,1609,1685,1738,1749,1790,1717,1670,1578,1675,1651,1617,1633,1580,1620,1552,1523,1555,1504,1550, 953,989,1262,1411,1677,2019,2380,2847,4218,4861,5632,6154,7130,7602,8378,8829,9096,10435,10680,10469,11573,11407,11554,11286,11248,11473,11416,11061,10811,10406,10818,10241,10788,10444,10675,10180,10115,9946
32,29,29,27,28,29,29,29,30,26,30,29,34,28,30,36,29,31,33,29,31,36,35,28,31,30,29,29,34,30,29,31,32,29,26,28,35,33,35,47,51,45,48,56,61,76,77,92,100,107,125,125,142,139,132,138,133,134,131,130,121,125,127,120,120,120,114,119,110,120,111,112,112,106,112,112, 219,206,238,261,309,366,435,514,610,774,910,996,1145,1269,1370,1413,1391,1332,1323,1325,1264,1263,1220,1244,1184,1182,1213,1162,1096,1153,1128,1151,1068,1067,1040,1040,992,979, 1211,1320,1478,1772,1887,2494,2680,3234,4218,5246,6140,6980,7969,8248,9413,9664,8815,9089,8791,8770,8155,8204,8355,7922,7790,7629,7762,7270,7493,7722,7105,7172,7278,7057,6733,6668,6220,6698
