User: USER,Path: C:\Program Files\BMG\CLARIOstar\User\Data\,Test run no.: 3301
Test name: Lenka_ADKkit,Date: 11/21/2019,Time: 1:59:42 PM
Fluorescence (FI), multichromatic

Well Row,Well Col,Content, Raw Data (535-10/587-10 1), Raw Data (535-10/587-10 1), Raw Data (535-10/587-10 1), Raw Data (535-10/587-10 1), Raw Data (535-10/587-10 1), Raw Data (535-10/587-10 1), Raw Data (535-10/587-10 1), Raw Data (535-10/587-10 1), Raw Data (535-10/587-10 1), Raw Data (535-10/587-10 1), Raw Data (535-10/587-10 1), Raw Data (535-10/587-10 1), Raw Data (535-10/587-10 1), Raw Data (535-10/587-10 1), Raw Data (535-10/587-10 1), Raw Data (535-10/587-10 1), Raw Data (535-10/587-10 1), Raw Data (535-10/587-10 1), Raw Data (535-10/587-10 1), Raw Data (535-10/587-10 1), Raw Data (535-10/587-10 1), Raw Data (535-10/587-10 1), Raw Data (535-10/587-10 1), Raw Data (535-10/587-10 1), Raw Data (535-10/587-10 1), Raw Data (535-10/587-10 1), Raw Data (535-10/587-10 1), Raw Data (535-10/587-10 1), Raw Data (535-10/587-10 1), Raw Data (535-10/587-10 1), Raw Data (535-10/587-10 1), Raw Data (535-10/587-10 1), Raw Data (535-10/587-10 1), Raw Data (535-10/587-10 1), Raw Data (535-10/587-10 1), Raw Data (535-10/587-10 1), Raw Data (535-10/587-10 1), Raw Data (535-10/587-10 1), Raw Data (535-10/587-10 2), Raw Data (535-10/587-10 2), Raw Data (535-10/587-10 2), Raw Data (535-10/587-10 2), Raw Data (535-10/587-10 2), Raw Data (535-10/587-10 2), Raw Data (535-10/587-10 2), Raw Data (535-10/587-10 2), Raw Data (535-10/587-10 2), Raw Data (535-10/587-10 2), Raw Data (535-10/587-10 2), Raw Data (535-10/587-10 2), Raw Data (535-10/587-10 2), Raw Data (535-10/587-10 2), Raw Data (535-10/587-10 2), Raw Data (535-10/587-10 2), Raw Data (535-10/587-10 2), Raw Data (535-10/587-10 2), Raw Data (535-10/587-10 2), Raw Data (535-10/587-10 2), Raw Data (535-10/587-10 2), Raw Data (535-10/587-10 2), Raw Data (535-10/587-10 2), Raw Data (535-10/587-10 2), Raw Data (535-10/587-10 2), Raw Data (535-10/587-10 2), Raw Data (535-10/587-10 2), Raw Data (535-10/587-10 2), Raw Data (535-10/587-10 2), Raw Data (535-10/587-10 2), Raw Data (535-10/587-10 2), Raw Data (535-10/587-10 2), Raw Data (535-10/587-10 2), Raw Data (535-10/587-10 2), Raw Data (535-10/587-10 2), Raw Data (535-10/587-10 2), Raw Data (535-10/587-10 2), Raw Data (535-10/587-10 2), Raw Data (535-10/587-10 3), Raw Data (535-10/587-10 3), Raw Data (535-10/587-10 3), Raw Data (535-10/587-10 3), Raw Data (535-10/587-10 3), Raw Data (535-10/587-10 3), Raw Data (535-10/587-10 3), Raw Data (535-10/587-10 3), Raw Data (535-10/587-10 3), Raw Data (535-10/587-10 3), Raw Data (535-10/587-10 3), Raw Data (535-10/587-10 3), Raw Data (535-10/587-10 3), Raw Data (535-10/587-10 3), Raw Data (535-10/587-10 3), Raw Data (535-10/587-10 3), Raw Data (535-10/587-10 3), Raw Data (535-10/587-10 3), Raw Data (535-10/587-10 3), Raw Data (535-10/587-10 3), Raw Data (535-10/587-10 3), Raw Data (535-10/587-10 3), Raw Data (535-10/587-10 3), Raw Data (535-10/587-10 3), Raw Data (535-10/587-10 3), Raw Data (535-10/587-10 3), Raw Data (535-10/587-10 3), Raw Data (535-10/587-10 3), Raw Data (535-10/587-10 3), Raw Data (535-10/587-10 3), Raw Data (535-10/587-10 3), Raw Data (535-10/587-10 3), Raw Data (535-10/587-10 3), Raw Data (535-10/587-10 3), Raw Data (535-10/587-10 3), Raw Data (535-10/587-10 3), Raw Data (535-10/587-10 3), Raw Data (535-10/587-10 3), Raw Data (535-10/587-10 4), Raw Data (535-10/587-10 4), Raw Data (535-10/587-10 4), Raw Data (535-10/587-10 4), Raw Data (535-10/587-10 4), Raw Data (535-10/587-10 4), Raw Data (535-10/587-10 4), Raw Data (535-10/587-10 4), Raw Data (535-10/587-10 4), Raw Data (535-10/587-10 4), Raw Data (535-10/587-10 4), Raw Data (535-10/587-10 4), Raw Data (535-10/587-10 4), Raw Data (535-10/587-10 4), Raw Data (535-10/587-10 4), Raw Data (535-10/587-10 4), Raw Data (535-10/587-10 4), Raw Data (535-10/587-10 4), Raw Data (535-10/587-10 4), Raw Data (535-10/587-10 4), Raw Data (535-10/587-10 4), Raw Data (535-10/587-10 4), Raw Data (535-10/587-10 4), Raw Data (535-10/587-10 4), Raw Data (535-10/587-10 4), Raw Data (535-10/587-10 4), Raw Data (535-10/587-10 4), Raw Data (535-10/587-10 4), Raw Data (535-10/587-10 4), Raw Data (535-10/587-10 4), Raw Data (535-10/587-10 4), Raw Data (535-10/587-10 4), Raw Data (535-10/587-10 4), Raw Data (535-10/587-10 4), Raw Data (535-10/587-10 4), Raw Data (535-10/587-10 4), Raw Data (535-10/587-10 4), Raw Data (535-10/587-10 4),
,,Time,0 min ,1 min ,2 min ,3 min ,4 min ,5 min ,6 min ,7 min ,8 min ,9 min ,10 min ,11 min ,12 min ,13 min ,14 min ,15 min ,16 min ,17 min ,18 min ,19 min ,20 min ,21 min ,22 min ,23 min ,24 min ,25 min ,26 min ,27 min ,28 min ,29 min ,30 min ,31 min ,32 min ,33 min ,34 min ,35 min ,36 min ,37 min ,0 min ,1 min ,2 min ,3 min ,4 min ,5 min ,6 min ,7 min ,8 min ,9 min ,10 min ,11 min ,12 min ,13 min ,14 min ,15 min ,16 min ,17 min ,18 min ,19 min ,20 min ,21 min ,22 min ,23 min ,24 min ,25 min ,26 min ,27 min ,28 min ,29 min ,30 min ,31 min ,32 min ,33 min ,34 min ,35 min ,36 min ,37 min ,0 min ,1 min ,2 min ,3 min ,4 min ,5 min ,6 min ,7 min ,8 min ,9 min ,10 min ,11 min ,12 min ,13 min ,14 min ,15 min ,16 min ,17 min ,18 min ,19 min ,20 min ,21 min ,22 min ,23 min ,24 min ,25 min ,26 min ,27 min ,28 min ,29 min ,30 min ,31 min ,32 min ,33 min ,34 min ,35 min ,36 min ,37 min ,0 min ,1 min ,2 min ,3 min ,4 min ,5 min ,6 min ,7 min ,8 min ,9 min ,10 min ,11 min ,12 min ,13 min ,14 min ,15 min ,16 min ,17 min ,18 min ,19 min ,20 min ,21 min ,22 min ,23 min ,24 min ,25 min ,26 min ,27 min ,28 min ,29 min ,30 min ,31 min ,32 min ,33 min ,34 min ,35 min ,36 min ,37 min ,
A,1,Sample X11,28,29,36,30,29,30,30,28,29,31,35,31,30,30,29,28,32,25,28,32,31,33,35,31,32,31,29,35,27,28,33,34,29,30,31,28,26,28,38,39,30,38,37,38,37,28,35,42,34,34,37,42,39,35,32,32,41,32,28,34,35,33,36,35,35,37,40,40,40,42,37,36,32,35,40,34,89,80,78,80,71,106,119,91,108,104,95,98,100,95,115,93,98,95,92,112,104,109,87,109,102,108,104,103,99,100,100,103,87,126,99,96,103,94,385,432,416,422,463,556,491,587,549,530,490,441,526,458,455,534,489,469,423,484,422,556,609,500,483,455,577,452,447,441,522,517,509,505,557,473,558,540,
A,2,Sample X12,33,26,23,31,33,33,29,31,39,31,33,30,29,29,31,32,31,29,34,26,31,34,31,31,29,34,31,32,28,35,29,31,30,29,32,32,36,32,67,79,99,119,142,149,144,140,145,142,127,121,123,122,128,122,121,119,115,114,112,118,123,108,119,109,122,114,110,110,110,113,102,115,108,98,109,107,474,732,969,1218,1413,1409,1537,1495,1461,1388,1290,1258,1301,1246,1217,1161,1129,1142,1196,1129,1087,1184,1076,1091,1066,1115,1144,1029,984,1077,1035,1018,1022,1058,1042,1073,1011,962,2986,5103,6664,8068,9182,10273,9834,9630,9010,8685,8304,8232,8032,7846,7988,7770,7709,7727,7815,7234,7059,7194,7105,7244,7238,6837,6617,6821,7001,6813,6712,6592,6733,6651,6603,6825,6240,6165,
A,3,Sample X13,27,30,34,30,26,30,28,31,30,28,33,30,30,34,30,27,26,26,27,32,31,32,27,39,29,28,29,29,31,26,30,28,25,27,28,36,29,29,35,47,45,41,46,42,36,41,42,43,35,31,39,39,40,41,38,39,33,38,31,38,33,29,36,31,34,32,39,37,36,33,37,31,31,33,27,35,195,166,145,140,136,169,157,141,142,123,152,151,132,123,109,111,120,120,109,112,101,99,96,87,100,89,92,76,93,92,88,73,85,71,81,79,75,79,875,871,954,902,782,757,822,788,839,772,847,742,719,730,656,659,679,648,542,568,515,454,357,416,435,520,491,472,420,410,381,435,352,329,316,318,288,327,
A,4,Sample X14,31,29,24,28,27,25,32,27,31,35,28,30,28,30,33,28,30,32,34,28,36,36,31,30,29,31,35,32,31,28,33,28,30,32,34,36,33,29,47,41,46,64,65,72,79,74,74,74,73,68,68,72,66,71,71,66,60,67,71,64,65,70,72,67,69,64,71,69,66,65,60,59,64,69,72,66,192,238,347,394,491,499,578,537,570,536,599,570,580,546,561,530,517,517,518,522,508,496,513,541,488,525,499,506,521,511,491,499,529,458,491,518,489,509,1055,1694,2380,2762,3009,3616,3385,3616,3751,3553,3664,3574,3631,3461,3702,3245,3439,3359,3289,3326,3214,3216,3611,3350,3442,3445,3100,3094,3144,3158,3170,3130,3264,3319,3280,3222,3338,3042,
A,5,Sample X15,27,32,31,31,31,32,33,26,35,29,32,28,27,29,31,30,30,30,30,28,31,26,30,33,29,35,34,25,32,30,34,33,28,30,36,35,29,25,47,45,54,45,53,43,50,46,48,47,59,60,68,66,65,67,85,80,75,81,79,80,89,90,91,95,97,95,107,103,109,98,102,110,108,115,104,109,211,194,233,242,241,254,292,287,362,350,375,402,434,470,495,559,544,595,612,626,700,685,736,750,750,793,802,876,885,912,978,985,970,1011,1059,1032,1059,1082,1181,1163,1411,1442,1343,1604,1874,2017,2011,2253,2402,2641,2670,3066,3019,3400,3350,3679,3996,4130,4388,4461,4763,4949,5386,5041,5385,5885,5869,5909,6186,6133,6507,6549,6475,6768,7092,6992,
A,6,Sample X16,29,32,32,29,32,30,25,31,28,28,30,33,30,31,34,32,33,28,33,27,33,37,33,30,31,33,37,31,26,33,30,31,35,34,29,30,36,34,36,37,42,44,56,48,54,63,74,87,92,105,106,119,124,129,139,149,151,159,156,166,170,163,168,161,162,164,158,157,160,163,156,144,158,152,145,152,179,188,199,220,250,321,400,453,613,753,807,944,1088,1134,1200,1326,1479,1522,1627,1609,1685,1738,1749,1790,1717,1670,1578,1675,1651,1617,1633,1580,1620,1552,1523,1555,1504,1550,953,989,1262,1411,1677,2019,2380,2847,4218,4861,5632,6154,7130,7602,8378,8829,9096,10435,10680,10469,11573,11407,11554,11286,11248,11473,11416,11061,10811,10406,10818,10241,10788,10444,10675,10180,10115,9946,
A,7,Sample X17,32,29,29,27,28,29,29,29,30,26,30,29,34,28,30,36,29,31,33,29,31,36,35,28,31,30,29,29,34,30,29,31,32,29,26,28,35,33,35,47,51,45,48,56,61,76,77,92,100,107,125,125,142,139,132,138,133,134,131,130,121,125,127,120,120,120,114,119,110,120,111,112,112,106,112,112,219,206,238,261,309,366,435,514,610,774,910,996,1145,1269,1370,1413,1391,1332,1323,1325,1264,1263,1220,1244,1184,1182,1213,1162,1096,1153,1128,1151,1068,1067,1040,1040,992,979,1211,1320,1478,1772,1887,2494,2680,3234,4218,5246,6140,6980,7969,8248,9413,9664,8815,9089,8791,8770,8155,8204,8355,7922,7790,7629,7762,7270,7493,7722,7105,7172,7278,7057,6733,6668,6220,6698,
A,8,Sample X18,29,33,30,26,29,26,31,35,31,34,30,32,35,31,27,28,28,29,25,31,35,31,30,33,31,29,31,32,36,31,29,36,34,30,29,29,26,30,27,30,32,26,31,34,29,31,37,33,33,32,33,33,31,30,29,35,28,27,31,30,39,35,26,32,36,35,26,32,39,37,33,41,32,35,40,31,38,54,41,50,51,61,57,55,52,64,71,60,63,60,59,68,55,65,63,65,65,69,61,60,70,67,67,65,64,55,73,75,65,57,63,56,64,69,152,151,178,147,155,183,193,217,213,292,220,230,269,188,259,224,195,275,258,247,234,231,221,289,274,283,253,268,184,245,290,261,206,211,286,324,239,262,
A,9,Sample X19,28,33,23,33,34,26,27,30,34,29,31,34,33,35,32,29,33,29,24,33,31,27,29,22,29,31,30,36,32,30,29,33,31,34,29,29,28,29,36,36,38,37,42,42,33,37,41,32,37,39,39,40,42,33,45,36,36,39,36,40,41,34,34,37,39,36,35,34,34,33,41,39,39,31,35,41,115,100,99,98,112,92,113,105,123,113,110,105,110,107,112,111,111,115,124,99,122,108,112,113,114,130,124,129,128,131,124,143,126,140,123,130,137,149,497,448,511,508,536,454,501,511,496,508,494,569,516,563,496,657,594,573,650,592,692,586,686,684,611,651,742,693,827,701,651,573,714,717,626,717,690,673,
