This is BibTeX, Version 0.99d (TeX Live 2019/Arch Linux)
Capacity: max_strings=100000, hash_size=100000, hash_prime=85009
The top-level auxiliary file: 04_EnzymeKinetics.aux
The style file: unsrt.bst
Database file #1: Literature_enzyme_kinetics.bib
You've used 4 entries,
            1791 wiz_defined-function locations,
            457 strings with 3995 characters,
and the built_in function-call counts, 416 in all, are:
= -- 30
> -- 4
< -- 0
+ -- 4
- -- 0
* -- 2
:= -- 43
add.period$ -- 8
call.type$ -- 4
change.case$ -- 4
chr.to.int$ -- 0
cite$ -- 4
duplicate$ -- 20
empty$ -- 73
format.name$ -- 0
if$ -- 107
int.to.chr$ -- 0
int.to.str$ -- 4
missing$ -- 0
newline$ -- 19
num.names$ -- 0
pop$ -- 28
preamble$ -- 1
purify$ -- 0
quote$ -- 0
skip$ -- 22
stack$ -- 0
substring$ -- 0
swap$ -- 4
text.length$ -- 0
text.prefix$ -- 0
top$ -- 0
type$ -- 0
warning$ -- 0
while$ -- 0
width$ -- 5
write$ -- 30
