This is BibTeX, Version 0.99d (TeX Live 2019/Arch Linux)
Capacity: max_strings=100000, hash_size=100000, hash_prime=85009
The top-level auxiliary file: Catalysis.aux
The style file: unsrt.bst
Database file #1: Literature_catalysis.bib
You've used 6 entries,
            1791 wiz_defined-function locations,
            460 strings with 4365 characters,
and the built_in function-call counts, 594 in all, are:
= -- 40
> -- 6
< -- 0
+ -- 6
- -- 0
* -- 2
:= -- 55
add.period$ -- 10
call.type$ -- 6
change.case$ -- 6
chr.to.int$ -- 0
cite$ -- 6
duplicate$ -- 30
empty$ -- 109
format.name$ -- 0
if$ -- 155
int.to.chr$ -- 0
int.to.str$ -- 6
missing$ -- 0
newline$ -- 25
num.names$ -- 0
pop$ -- 40
preamble$ -- 1
purify$ -- 0
quote$ -- 0
skip$ -- 38
stack$ -- 0
substring$ -- 0
swap$ -- 6
text.length$ -- 0
text.prefix$ -- 0
top$ -- 0
type$ -- 0
warning$ -- 0
while$ -- 0
width$ -- 7
write$ -- 40
