  5.018      187
  5.068      194
  5.118      202
  5.168      174
  5.218      204
  5.268      185
  5.318      170
  5.368      195
  5.418      188
  5.468      187
  5.518      170
  5.568      179
  5.618      187
  5.668      200
  5.718      158
  5.768      167
  5.818      143
  5.868      168
  5.918      177
  5.968      168
  6.018      149
  6.068      149
  6.118      156
  6.168      129
  6.218      146
  6.268      136
  6.318      145
  6.368      130
  6.418      139
  6.468      139
  6.518      140
  6.568      134
  6.618      132
  6.668      119
  6.718      122
  6.768      123
  6.818      123
  6.868      118
  6.918      122
  6.968      131
  7.018      132
  7.068       96
  7.118      106
  7.168      106
  7.218      105
  7.268      102
  7.318       91
  7.368       96
  7.418      100
  7.468       83
  7.518       89
  7.568      103
  7.618       90
  7.668       88
  7.718       85
  7.768       84
  7.818       80
  7.868       81
  7.918       96
  7.968       72
  8.018       60
  8.068       65
  8.118       79
  8.168       77
  8.218       79
  8.268       78
  8.318       80
  8.368       69
  8.418       68
  8.468       71
  8.518       74
  8.568       75
  8.618       68
  8.668       68
  8.718       62
  8.768       71
  8.818       67
  8.868       76
  8.918       68
  8.968       71
  9.018       83
  9.068       77
  9.118       69
  9.168       63
  9.218       76
  9.268       76
  9.318       60
  9.368       63
  9.418       76
  9.468       59
  9.518       59
  9.568       56
  9.618       65
  9.668       54
  9.718       51
  9.768       56
  9.818       55
  9.868       65
  9.918       59
  9.968       66
 10.018       58
 10.068       66
 10.118       59
 10.168       58
 10.218       59
 10.268       63
 10.318       56
 10.368       45
 10.418       46
 10.468       48
 10.518       64
 10.568       64
 10.618       57
 10.668       59
 10.718       66
 10.768       66
 10.818       60
 10.868       50
 10.918       58
 10.968       66
 11.018       52
 11.068       48
 11.118       56
 11.168       58
 11.218       59
 11.268       64
 11.318       53
 11.368       51
 11.418       54
 11.468       53
 11.518       42
 11.568       55
 11.618       68
 11.668       59
 11.718       55
 11.768       53
 11.818       53
 11.868       61
 11.918       65
 11.968       51
 12.018       54
 12.068       54
 12.118       55
 12.168       52
 12.218       53
 12.268       63
 12.318       57
 12.368       50
 12.418       47
 12.468       41
 12.518       50
 12.568       56
 12.618       55
 12.668       50
 12.718       53
 12.768       46
 12.818       47
 12.868       51
 12.918       41
 12.968       46
 13.018       49
 13.068       51
 13.118       50
 13.168       52
 13.218       56
 13.268       59
 13.318       50
 13.368       42
 13.418       46
 13.468       45
 13.518       43
 13.568       40
 13.618       50
 13.668       55
 13.718       43
 13.768       42
 13.818       50
 13.868       48
 13.918       46
 13.968       54
 14.018       54
 14.068       47
 14.118       46
 14.168       48
 14.218       51
 14.268       54
 14.318       54
 14.368       48
 14.418       43
 14.468       41
 14.518       49
 14.568       59
 14.618       51
 14.668       47
 14.718       54
 14.768       54
 14.818       43
 14.868       44
 14.918       54
 14.968       53
 15.018       47
 15.068       47
 15.118       46
 15.168       46
 15.218       46
 15.268       48
 15.318       49
 15.368       46
 15.418       47
 15.468       47
 15.518       43
 15.568       36
 15.618       45
 15.668       55
 15.718       56
 15.768       57
 15.818       47
 15.868       47
 15.918       51
 15.968       44
 16.018       51
 16.068       50
 16.118       53
 16.168       52
 16.218       54
 16.268       48
 16.318       47
 16.368       44
 16.418       43
 16.468       49
 16.518       50
 16.568       47
 16.618       40
 16.668       38
 16.718       42
 16.768       45
 16.818       50
 16.868       50
 16.918       34
 16.968       41
 17.018       49
 17.068       52
 17.118       47
 17.168       46
 17.218       48
 17.268       47
 17.318       50
 17.368       42
 17.418       47
 17.468       48
 17.518       49
 17.568       61
 17.618       69
 17.668       50
 17.718       38
 17.768       44
 17.818       58
 17.868       58
 17.918       49
 17.968       56
 18.018       52
 18.068       39
 18.118       32
 18.168       44
 18.218       52
 18.268       51
 18.318       51
 18.368       45
 18.418       45
 18.468       39
 18.518       32
 18.568       34
 18.618       32
 18.668       44
 18.718       42
 18.768       44
 18.818       33
 18.868       49
 18.918       54
 18.968       43
 19.018       41
 19.068       56
 19.118       36
 19.168       28
 19.218       34
 19.268       49
 19.318       54
 19.368       53
 19.418       40
 19.468       42
 19.518       40
 19.568       33
 19.618       33
 19.668       37
 19.718       47
 19.768       50
 19.818       39
 19.868       37
 19.918       49
 19.968       47
 20.018       48
 20.068       44
 20.118       48
 20.168       34
 20.218       40
 20.268       42
 20.318       36
 20.368       45
 20.418       47
 20.468       47
 20.518       58
 20.568       29
 20.618       38
 20.668       45
 20.718       42
 20.768       39
 20.818       38
 20.868       37
 20.918       48
 20.968       46
 21.018       45
 21.068       46
 21.118       43
 21.168       41
 21.218       50
 21.268       38
 21.318       35
 21.368       45
 21.418       43
 21.468       48
 21.518       38
 21.568       46
 21.618       47
 21.668       45
 21.718       46
 21.768       46
 21.818       45
 21.868       53
 21.918       43
 21.968       42
 22.018       34
 22.068       38
 22.118       36
 22.168       48
 22.218       53
 22.268       55
 22.318       52
 22.368       36
 22.418       49
 22.468       34
 22.518       36
 22.568       36
 22.618       46
 22.668       51
 22.718       42
 22.768       50
 22.818       49
 22.868       45
 22.918       46
 22.968       53
 23.018       33
 23.068       39
 23.118       42
 23.168       38
 23.218       40
 23.268       49
 23.318       43
 23.368       33
 23.418       38
 23.468       38
 23.518       43
 23.568       47
 23.618       47
 23.668       48
 23.718       48
 23.768       40
 23.818       38
 23.868       48
 23.918       73
 23.968       64
 24.018       58
 24.068       70
 24.118       86
 24.168      101
 24.218      109
 24.268       94
 24.318       89
 24.368      104
 24.418      100
 24.468       77
 24.518       97
 24.568       91
 24.618       96
 24.668       90
 24.718       62
 24.768       70
 24.818       83
 24.868       51
 24.918       50
 24.968       62
 25.018       64
 25.068       56
 25.118       48
 25.168       44
 25.218       45
 25.268       39
 25.318       47
 25.368       44
 25.418       40
 25.468       45
 25.518       52
 25.568       38
 25.618       41
 25.668       45
 25.718       45
 25.768       30
 25.818       59
 25.868       60
 25.918       44
 25.968       46
 26.018       37
 26.068       34
 26.118       43
 26.168       43
 26.218       52
 26.268       44
 26.318       38
 26.368       34
 26.418       57
 26.468       52
 26.518       66
 26.568       51
 26.618       47
 26.668       51
 26.718       40
 26.768       41
 26.818       53
 26.868       44
 26.918       56
 26.968       58
 27.018       48
 27.068       47
 27.118       52
 27.168       71
 27.218       58
 27.268       65
 27.318       57
 27.368       65
 27.418       62
 27.468       57
 27.518       62
 27.568       73
 27.618       61
 27.668       70
 27.718       68
 27.768       56
 27.818       78
 27.868       82
 27.918       90
 27.968      107
 28.018      120
 28.068      168
 28.118      186
 28.168      222
 28.218      321
 28.268      367
 28.318      406
 28.368      442
 28.418      452
 28.468      448
 28.518      372
 28.568      287
 28.618      254
 28.668      201
 28.718      151
 28.768      110
 28.818      101
 28.868       86
 28.918       85
 28.968       72
 29.018       75
 29.068       75
 29.118       87
 29.168       76
 29.218       56
 29.268       60
 29.318       65
 29.368       57
 29.418       55
 29.468       50
 29.518       56
 29.568       52
 29.618       53
 29.668       50
 29.718       39
 29.768       45
 29.818       52
 29.868       52
 29.918       44
 29.968       56
 30.018       51
 30.068       51
 30.118       53
 30.168       41
 30.218       58
 30.268       57
 30.318       56
 30.368       56
 30.418       51
 30.468       55
 30.518       56
 30.568       56
 30.618       56
 30.668       68
 30.718       66
 30.768       52
 30.818       61
 30.868       59
 30.918       55
 30.968       64
 31.018       59
 31.068       68
 31.118       67
 31.168       71
 31.218       87
 31.268      103
 31.318      127
 31.368      131
 31.418      147
 31.468      167
 31.518      230
 31.568      298
 31.618      344
 31.668      342
 31.718      325
 31.768      315
 31.818      283
 31.868      238
 31.918      197
 31.968      144
 32.018      117
 32.068      113
 32.118      109
 32.168       96
 32.218       83
 32.268       73
 32.318       62
 32.368       62
 32.418       57
 32.468       48
 32.518       43
 32.568       39
 32.618       42
 32.668       45
 32.718       50
 32.768       65
 32.818       65
 32.868       56
 32.918       53
 32.968       44
 33.018       52
 33.068       52
 33.118       44
 33.168       58
 33.218       58
 33.268       53
 33.318       54
 33.368       48
 33.418       44
 33.468       44
 33.518       47
 33.568       47
 33.618       52
 33.668       63
 33.718       63
 33.768       54
 33.818       55
 33.868       53
 33.918       58
 33.968       70
 34.018       80
 34.068       88
 34.118       95
 34.168      100
 34.218      113
 34.268      129
 34.318      140
 34.368      158
 34.418      172
 34.468      165
 34.518      165
 34.568      148
 34.618      130
 34.668      139
 34.718      133
 34.768      107
 34.818       88
 34.868       80
 34.918       76
 34.968       65
 35.018       73
 35.068       65
 35.118       61
 35.168       65
 35.218       72
 35.268       79
 35.318       87
 35.368       98
 35.418      103
 35.468      115
 35.518      125
 35.568      128
 35.618      109
 35.668       87
 35.718       80
 35.768       70
 35.818       69
 35.868       62
 35.918       56
 35.968       50
 36.018       56
 36.068       64
 36.118       57
 36.168       61
 36.218       57
 36.268       40
 36.318       50
 36.368       58
 36.418       49
 36.468       43
 36.518       48
 36.568       36
 36.618       41
 36.668       44
 36.718       46
 36.768       44
 36.818       45
 36.868       41
 36.918       41
 36.968       35
 37.018       41
 37.068       48
 37.118       49
 37.168       41
 37.218       36
 37.268       37
 37.318       41
 37.368       38
 37.418       45
 37.468       38
 37.518       47
 37.568       30
 37.618       36
 37.668       41
 37.718       37
 37.768       33
 37.818       34
 37.868       33
 37.918       37
 37.968       44
 38.018       43
 38.068       43
 38.118       46
 38.168       45
 38.218       45
 38.268       41
 38.318       44
 38.368       39
 38.418       46
 38.468       55
 38.518       48
 38.568       50
 38.618       45
 38.668       55
 38.718       60
 38.768       57
 38.818       60
 38.868       65
 38.918       60
 38.968       62
 39.018       57
 39.068       58
 39.118       48
 39.168       49
 39.218       54
 39.268       53
 39.318       50
 39.368       54
 39.418       51
 39.468       55
 39.518       50
 39.568       57
 39.618       53
 39.668       57
 39.718       46
 39.768       55
 39.818       47
 39.868       45
 39.918       43
 39.968       36
 40.018       40
 40.068       42
 40.118       45
 40.168       49
 40.218       48
 40.268       47
 40.318       37
 40.368       48
 40.418       65
 40.468       59
 40.518       45
 40.568       51
 40.618       41
 40.668       72
 40.718       84
 40.768       88
 40.818       83
 40.868       99
 40.918       97
 40.968      109
 41.018      108
 41.068       82
 41.118      102
 41.168      105
 41.218       97
 41.268       79
 41.318       86
 41.368      104
 41.418       77
 41.468       90
 41.518       97
 41.568       78
 41.618       62
 41.668       77
 41.718       75
 41.768       70
 41.818       46
 41.868       59
 41.918       49
 41.968       48
 42.018       33
 42.068       34
 42.118       34
 42.168       46
 42.218       28
 42.268       47
 42.318       33
 42.368       47
 42.418       49
 42.468       38
 42.518       47
 42.568       39
 42.618       52
 42.668       38
 42.718       52
 42.768       35
 42.818       28
 42.868       46
 42.918       36
 42.968       48
 43.018       52
 43.068       37
 43.118       49
 43.168       50
 43.218       31
 43.268       39
 43.318       42
 43.368       45
 43.418       45
 43.468       46
 43.518       42
 43.568       28
 43.618       45
 43.668       39
 43.718       47
 43.768       40
 43.818       38
 43.868       38
 43.918       40
 43.968       36
 44.018       25
 44.068       46
 44.118       47
 44.168       40
 44.218       40
 44.268       45
 44.318       51
 44.368       39
 44.418       43
 44.468       45
 44.518       40
 44.568       35
 44.618       36
 44.668       34
 44.718       61
 44.768       52
 44.818       57
 44.868       59
 44.918       62
 44.968       73
 45.018       78
 45.068       85
 45.118       81
 45.168       79
 45.218       71
 45.268       70
 45.318       48
 45.368       58
 45.418       72
 45.468       54
 45.518       57
 45.568       75
 45.618       61
 45.668       85
 45.718       88
 45.768       81
 45.818       78
 45.868       67
 45.918       85
 45.968       70
 46.018       56
 46.068       52
 46.118       50
 46.168       56
 46.218       48
 46.268       40
 46.318       47
 46.368       47
 46.418       37
 46.468       45
 46.518       56
 46.568       44
 46.618       38
 46.668       34
 46.718       45
 46.768       54
 46.818       51
 46.868       44
 46.918       40
 46.968       38
 47.018       32
 47.068       33
 47.118       32
 47.168       32
 47.218       31
 47.268       46
 47.318       46
 47.368       41
 47.418       32
 47.468       33
 47.518       47
 47.568       37
 47.618       41
 47.668       53
 47.718       48
 47.768       45
 47.818       46
 47.868       37
 47.918       44
 47.968       39
 48.018       31
 48.068       42
 48.118       45
 48.168       45
 48.218       39
 48.268       42
 48.318       39
 48.368       45
 48.418       51
 48.468       51
 48.518       41
 48.568       34
 48.618       40
 48.668       47
 48.718       56
 48.768       46
 48.818       37
 48.868       47
 48.918       60
 48.968       61
 49.018       61
 49.068       73
 49.118       83
 49.168       99
 49.218       96
 49.268       93
 49.318      109
 49.368      135
 49.418      163
 49.468      180
 49.518      167
 49.568      151
 49.618      136
 49.668      125
 49.718      108
 49.768      100
 49.818       89
 49.868       84
 49.918       80
 49.968       81
 50.018       88
 50.068      103
 50.118      122
 50.168      137
 50.218      145
 50.268      169
 50.318      186
 50.368      189
 50.418      208
 50.468      201
 50.518      173
 50.568      152
 50.618      149
 50.668      138
 50.718      137
 50.768      142
 50.818      133
 50.868      115
 50.918      108
 50.968       92
 51.018       90
 51.068       83
 51.118       73
 51.168       77
 51.218       70
 51.268       67
 51.318       81
 51.368       83
 51.418       78
 51.468       80
 51.518       75
 51.568       69
 51.618       62
 51.668       55
 51.718       54
 51.768       53
 51.818       55
 51.868       52
 51.918       49
 51.968       45
 52.018       41
 52.068       41
 52.118       38
 52.168       39
 52.218       40
 52.268       37
 52.318       46
 52.368       55
 52.418       44
 52.468       33
 52.518       36
 52.568       41
 52.618       42
 52.668       40
 52.718       43
 52.768       39
 52.818       36
 52.868       46
 52.918       50
 52.968       43
 53.018       42
 53.068       45
 53.118       44
 53.168       45
 53.218       47
 53.268       45
 53.318       42
 53.368       35
 53.418       37
 53.468       49
 53.518       51
 53.568       50
 53.618       52
 53.668       48
 53.718       51
 53.768       50
 53.818       47
 53.868       55
 53.918       65
 53.968       64
 54.018       69
 54.068       87
 54.118       92
 54.168       90
 54.218      106
 54.268      114
 54.318      116
 54.368      107
 54.418      114
 54.468       99
 54.518       92
 54.568       83
 54.618       60
 54.668       65
 54.718       66
 54.768       57
 54.818       59
 54.868       63
 54.918       58
 54.968       60
 55.018       66
 55.068       60
 55.118       47
 55.168       53
 55.218       65
 55.268       71
 55.318       66
 55.368       77
 55.418      106
 55.468      107
 55.518      114
 55.568      121
 55.618      122
 55.668      145
 55.718      160
 55.768      133
 55.818      130
 55.868      120
 55.918      132
 55.968      101
 56.018      118
 56.068      137
 56.118      122
 56.168      105
 56.218      105
 56.268       82
 56.318       81
 56.368       71
 56.418       63
 56.468       74
 56.518       63
 56.568       45
 56.618       46
 56.668       39
 56.718       48
 56.768       42
 56.818       47
 56.868       46
 56.918       51
 56.968       63
 57.018       52
 57.068       54
 57.118       66
 57.168       65
 57.218       71
 57.268       83
 57.318       93
 57.368       90
 57.418       82
 57.468       75
 57.518       81
 57.568       79
 57.618       78
 57.668       72
 57.718       67
 57.768       82
 57.818       74
 57.868       58
 57.918       59
 57.968       69
 58.018       74
 58.068       89
 58.118       79
 58.168       85
 58.218       78
 58.268       79
 58.318       74
 58.368       94
 58.418       80
 58.468       76
 58.518       66
 58.568       57
 58.618       60
 58.668       58
 58.718       66
 58.768       75
 58.818       66
 58.868       51
 58.918       54
 58.968       39
 59.018       44
 59.068       44
 59.118       34
 59.168       47
 59.218       38
 59.268       52
 59.318       36
 59.368       49
 59.418       48
 59.468       52
 59.518       45
 59.568       59
 59.618       55
 59.668       56
 59.718       68
 59.768       79
 59.818       76
 59.868       78
 59.918       90
 59.968       86
 60.018      113
 60.068      134
 60.118      107
 60.168      117
 60.218      113
 60.268       97
 60.318       95
 60.368       96
 60.418       85
 60.468       78
 60.518       71
 60.568       67
 60.618       63
 60.668       61
 60.718       45
 60.768       55
 60.818       52
 60.868       47
 60.918       58
 60.968       61
 61.018       40
 61.068       55
 61.118       59
 61.168       63
 61.218       65
 61.268       55
 61.318       57
 61.368       54
 61.418       52
 61.468       75
 61.518       90
 61.568       79
 61.618       96
 61.668       76
 61.718       84
 61.768       75
 61.818       67
 61.868       76
 61.918       66
 61.968       80
 62.018       64
 62.068       82
 62.118       84
 62.168       99
 62.218       76
 62.268       83
 62.318       78
 62.368       80
 62.418       88
 62.468       78
 62.518       73
 62.568       40
 62.618       58
 62.668       67
 62.718       66
 62.768       64
 62.818       69
 62.868       86
 62.918       95
 62.968       77
 63.018      115
 63.068       95
 63.118      110
 63.168      103
 63.218       81
 63.268       80
 63.318       58
 63.368       74
 63.418       57
 63.468       45
 63.518       40
 63.568       49
 63.618       67
 63.668       41
 63.718       50
 63.768       42
 63.818       56
 63.868       49
 63.918       57
 63.968       48
 64.018       44
 64.068       47
 64.118       45
 64.168       55
 64.218       50
 64.268       46
 64.318       61
 64.368       67
 64.418       55
 64.468       47
 64.518       68
 64.568       73
 64.618       61
 64.668       49
 64.718       56
 64.768       46
 64.818       54
 64.868       66
 64.918       42
 64.968       41
 65.018       40
 65.068       42
 65.118       48
 65.168       46
 65.218       43
 65.268       51
 65.318       57
 65.368       48
 65.418       57
 65.468       73
 65.518       61
 65.568       60
 65.618       69
 65.668       75
 65.718       76
 65.768       87
 65.818       89
 65.868       93
 65.918       96
 65.968       81
 66.018       86
 66.068       76
 66.118       61
 66.168       67
 66.218       62
 66.268       57
 66.318       55
 66.368       65
 66.418       52
 66.468       48
 66.518       49
 66.568       34
 66.618       39
 66.668       43
 66.718       47
 66.768       39
 66.818       36
 66.868       33
 66.918       33
 66.968       40
 67.018       36
 67.068       36
 67.118       38
 67.168       27
 67.218       39
 67.268       40
 67.318       32
 67.368       27
 67.418       27
 67.468       34
 67.518       30
 67.568       30
 67.618       40
 67.668       37
 67.718       29
 67.768       33
 67.818       38
 67.868       39
 67.918       39
 67.968       37
 68.018       34
 68.068       30
 68.118       32
 68.168       37
 68.218       34
 68.268       33
 68.318       34
 68.368       35
 68.418       31
 68.468       39
 68.518       42
 68.568       35
 68.618       33
 68.668       36
 68.718       40
 68.768       37
 68.818       39
 68.868       50
 68.918       51
 68.968       46
 69.018       44
 69.068       46
 69.118       52
 69.168       49
 69.218       51
 69.268       50
 69.318       52
 69.368       56
 69.418       50
 69.468       39
 69.518       37
 69.568       28
 69.618       29
 69.668       41
 69.718       37
 69.768       40
 69.818       41
 69.868       47
 69.918       47
 69.968       48

