5.018,0
5.068,15
5.118,-30
5.168,-83
5.218,22
5.268,-46
5.318,25
5.368,-15
5.418,7
5.468,-47
5.518,-28
5.568,43
5.618,0
5.668,9
5.718,44
5.768,42
5.818,-13
5.868,8
5.918,52
5.968,46
6.018,-1
6.068,20
6.118,83
6.168,5
6.218,18
6.268,23
6.318,28
6.368,18
6.418,43
6.468,37
6.518,-20
6.568,35
6.618,15
6.668,-13
6.718,-9
6.768,46
6.818,44
6.868,18
6.918,-40
6.968,18
7.018,9
7.068,1
7.118,-24
7.168,13
7.218,43
7.268,-6
7.318,-9
7.368,26
7.418,-2
7.468,-27
7.518,-10
7.568,-7
7.618,17
7.668,-7
7.718,-2
7.768,-9
7.818,-2
7.868,1
7.918,8
7.968,3
8.018,-13
8.068,6
8.118,30
8.168,-9
8.218,-4
8.268,4
8.318,2
8.368,-6
8.418,-41
8.468,2
8.518,2
8.568,-13
8.618,-24
8.668,-9
8.718,-4
8.768,-16
8.818,-11
8.868,7
8.918,22
8.968,37
9.018,20
9.068,18
9.118,14
9.168,18
9.218,5
9.268,20
9.318,-5
9.368,12
9.418,13
9.468,5
9.518,-7
9.568,12
9.618,10
9.668,14
9.718,23
9.768,33
9.818,19
9.868,1
9.918,59
9.968,54
10.018,37
10.068,15
10.118,-9
10.168,-1
10.218,26
10.268,-17
10.318,-4
10.368,10
10.418,33
10.468,4
10.518,-1
10.568,26
10.618,19
10.668,7
10.718,3
10.768,23
10.818,-9
10.868,-10
10.918,23
10.968,26
11.018,-5
11.068,2
11.118,30
11.168,30
11.218,-3
11.268,2
11.318,20
11.368,5
11.418,9
11.468,20
11.518,4
11.568,42
11.618,27
11.668,18
11.718,25
11.768,18
11.818,4
11.868,21
11.918,23
11.968,10
12.018,-4
12.068,15
12.118,25
12.168,2
12.218,8
12.268,35
12.318,17
12.368,19
12.418,9
12.468,16
12.518,40
12.568,38
12.618,27
12.668,18
12.718,3
12.768,10
12.818,19
12.868,50
12.918,53
12.968,36
13.018,44
13.068,36
13.118,22
13.168,24
13.218,43
13.268,38
13.318,33
13.368,61
13.418,63
13.468,63
13.518,48
13.568,24
13.618,16
13.668,11
13.718,36
13.768,50
13.818,30
13.868,14
13.918,3
13.968,12
14.018,27
14.068,36
14.118,57
14.168,79
14.218,57
14.268,35
14.318,42
14.368,47
14.418,56
14.468,36
14.518,24
14.568,35
14.618,41
14.668,63
14.718,57
14.768,32
14.818,37
14.868,29
14.918,13
14.968,27
15.018,63
15.068,70
15.118,33
15.168,24
15.218,32
15.268,47
15.318,53
15.368,35
15.418,37
15.468,54
15.518,56
15.568,37
15.618,34
15.668,45
15.718,30
15.768,18
15.818,36
15.868,25
15.918,5
15.968,42
16.018,29
16.068,26
16.118,25
16.168,20
16.218,40
16.268,47
16.318,64
16.368,54
16.418,46
16.468,54
16.518,34
16.568,37
16.618,29
16.668,24
16.718,21
16.768,23
16.818,54
16.868,68
16.918,61
16.968,69
17.018,60
17.068,54
17.118,47
17.168,21
17.218,49
17.268,89
17.318,122
17.368,129
17.418,116
17.468,112
17.518,131
17.568,133
17.618,182
17.668,211
17.718,198
17.768,172
17.818,152
17.868,167
17.918,143
17.968,83
18.018,82
18.068,66
18.118,93
18.168,80
18.218,52
18.268,29
18.318,55
18.368,41
18.418,18
18.468,16
18.518,4
18.568,30
18.618,11
18.668,13
18.718,37
18.768,35
18.818,55
18.868,34
18.918,15
18.968,29
19.018,58
19.068,55
19.118,30
19.168,17
19.218,22
19.268,8
19.318,40
19.368,25
19.418,66
19.468,33
19.518,21
19.568,18
19.618,58
19.668,58
19.718,36
19.768,29
19.818,34
19.868,49
19.918,26
19.968,36
20.018,14
20.068,-9
20.118,25
20.168,18
20.218,6
20.268,51
20.318,12
20.368,53
20.418,26
20.468,9
20.518,42
20.568,37
20.618,6
20.668,17
20.718,31
20.768,50
20.818,-3
20.868,15
20.918,31
20.968,-12
21.018,5
21.068,30
21.118,32
21.168,26
21.218,-29
21.268,-18
21.318,29
21.368,22
21.418,45
21.468,69
21.518,40
21.568,8
21.618,13
21.668,28
21.718,9
21.768,8
21.818,20
21.868,18
21.918,25
21.968,-33
22.018,8
22.068,0
22.118,5
22.168,-11
22.218,-6
22.268,30
22.318,25
22.368,-4
22.418,-9
22.468,45
22.518,24
22.568,30
22.618,25
22.668,40
22.718,25
22.768,26
22.818,39
22.868,35
22.918,4
22.968,35
23.018,41
23.068,14
23.118,33
23.168,-6
23.218,-3
23.268,18
23.318,41
23.368,17
23.418,22
23.468,51
23.518,42
23.568,48
23.618,70
23.668,79
23.718,97
23.768,80
23.818,135
23.868,144
23.918,199
23.968,256
24.018,256
24.068,329
24.118,423
24.168,450
24.218,573
24.268,597
24.318,621
24.368,604
24.418,597
24.468,576
24.518,539
24.568,583
24.618,586
24.668,567
24.718,474
24.768,483
24.818,360
24.868,345
24.918,302
24.968,253
25.018,210
25.068,190
25.118,101
25.168,103
25.218,93
25.268,78
25.318,50
25.368,53
25.418,51
25.468,67
25.518,39
25.568,57
25.618,66
25.668,33
25.718,8
25.768,14
25.818,37
25.868,39
25.918,-2
25.968,25
26.018,21
26.068,12
26.118,-3
26.168,24
26.218,41
26.268,36
26.318,-2
26.368,28
26.418,-2
26.468,44
26.518,37
26.568,54
26.618,26
26.668,-14
26.718,26
26.768,21
26.818,59
26.868,45
26.918,70
26.968,79
27.018,64
27.068,77
27.118,75
27.168,82
27.218,62
27.268,89
27.318,83
27.368,117
27.418,122
27.468,173
27.518,153
27.568,174
27.618,188
27.668,247
27.718,252
27.768,362
27.818,430
27.868,501
27.918,588
27.968,737
28.018,938
28.068,1169
28.118,1442
28.168,1770
28.218,2210
28.268,2533
28.318,2756
28.368,3031
28.418,3214
28.468,3159
28.518,2986
28.568,2647
28.618,2230
28.668,1970
28.718,1631
28.768,1321
28.818,1041
28.868,834
28.918,604
28.968,492
29.018,448
29.068,401
29.118,353
29.168,289
29.218,240
29.268,204
29.318,176
29.368,184
29.418,166
29.468,175
29.518,161
29.568,163
29.618,160
29.668,126
29.718,104
29.768,126
29.818,119
29.868,112
29.918,98
29.968,101
30.018,138
30.068,126
30.118,131
30.168,143
30.218,122
30.268,117
30.318,152
30.368,135
30.418,123
30.468,136
30.518,123
30.568,116
30.618,148
30.668,154
30.718,185
30.768,197
30.818,209
30.868,208
30.918,217
30.968,246
31.018,254
31.068,283
31.118,350
31.168,418
31.218,444
31.268,528
31.318,687
31.368,860
31.418,1107
31.468,1328
31.518,1610
31.568,1905
31.618,2078
31.668,2190
31.718,2323
31.768,2263
31.818,2106
31.868,1888
31.918,1619
31.968,1347
32.018,1083
32.068,845
32.118,657
32.168,521
32.218,446
32.268,360
32.318,282
32.368,242
32.418,205
32.468,159
32.518,165
32.568,193
32.618,142
32.668,104
32.718,112
32.768,105
32.818,108
32.868,141
32.918,131
32.968,92
33.018,92
33.068,91
33.118,79
33.168,99
33.218,130
33.268,118
33.318,129
33.368,138
33.418,134
33.468,127
33.518,100
33.568,127
33.618,163
33.668,212
33.718,253
33.768,245
33.818,242
33.868,275
33.918,310
33.968,337
34.018,405
34.068,472
34.118,543
34.168,624
34.218,730
34.268,855
34.318,913
34.368,975
34.418,1021
34.468,1009
34.518,1017
34.568,1000
34.618,872
34.668,825
34.718,804
34.768,721
34.818,604
34.868,540
34.918,446
34.968,360
35.018,355
35.068,334
35.118,306
35.168,302
35.218,364
35.268,394
35.318,444
35.368,459
35.418,488
35.468,561
35.518,562
35.568,586
35.618,562
35.668,512
35.718,450
35.768,410
35.818,369
35.868,331
35.918,286
35.968,232
36.018,185
36.068,159
36.118,172
36.168,172
36.218,135
36.268,110
36.318,122
36.368,88
36.418,51
36.468,58
36.518,79
36.568,51
36.618,14
36.668,44
36.718,62
36.768,12
36.818,21
36.868,46
36.918,20
36.968,20
37.018,11
37.068,24
37.118,11
37.168,14
37.218,13
37.268,-5
37.318,-4
37.368,-21
37.418,3
37.468,-5
37.518,11
37.568,-4
37.618,4
37.668,13
37.718,18
37.768,31
37.818,0
37.868,4
37.918,11
37.968,22
38.018,14
38.068,22
38.118,17
38.168,21
38.218,19
38.268,28
38.318,53
38.368,51
38.418,40
38.468,50
38.518,101
38.568,134
38.618,167
38.668,184
38.718,173
38.768,200
38.818,189
38.868,217
38.918,253
38.968,195
39.018,143
39.068,141
39.118,158
39.168,89
39.218,106
39.268,93
39.318,79
39.368,50
39.418,55
39.468,45
39.518,58
39.568,41
39.618,43
39.668,34
39.718,78
39.768,80
39.818,93
39.868,19
39.918,61
39.968,59
40.018,27
40.068,26
40.118,47
40.168,53
40.218,77
40.268,83
40.318,84
40.368,96
40.418,93
40.468,128
40.518,151
40.568,168
40.618,229
40.668,230
40.718,318
40.768,370
40.818,374
40.868,449
40.918,479
40.968,464
41.018,505
41.068,514
41.118,512
41.168,445
41.218,490
41.268,427
41.318,425
41.368,412
41.418,418
41.468,406
41.518,396
41.568,362
41.618,349
41.668,323
41.718,270
41.768,280
41.818,245
41.868,189
41.918,188
41.968,143
42.018,117
42.068,110
42.118,82
42.168,70
42.218,82
42.268,83
42.318,71
42.368,36
42.418,21
42.468,45
42.518,39
42.568,74
42.618,-1
42.668,-15
42.718,7
42.768,17
42.818,42
42.868,-1
42.918,20
42.968,46
43.018,44
43.068,-12
43.118,40
43.168,-3
43.218,12
43.268,8
43.318,-6
43.368,23
43.418,-15
43.468,-13
43.518,1
43.568,36
43.618,29
43.668,-12
43.718,31
43.768,31
43.818,24
43.868,38
43.918,29
43.968,5
44.018,67
44.068,29
44.118,43
44.168,47
44.218,36
44.268,54
44.318,62
44.368,27
44.418,47
44.468,68
44.518,47
44.568,91
44.618,78
44.668,117
44.718,126
44.768,148
44.818,178
44.868,208
44.918,203
44.968,240
45.018,234
45.068,278
45.118,280
45.168,275
45.218,272
45.268,305
45.318,252
45.368,270
45.418,254
45.468,255
45.518,266
45.568,232
45.618,228
45.668,275
45.718,259
45.768,241
45.818,273
45.868,259
45.918,235
45.968,218
46.018,194
46.068,151
46.118,101
46.168,99
46.218,102
46.268,63
46.318,59
46.368,38
46.418,-2
46.468,-11
46.518,-6
46.568,8
46.618,-8
46.668,4
46.718,5
46.768,5
46.818,-10
46.868,-4
46.918,5
46.968,52
47.018,4
47.068,-25
47.118,-21
47.168,-6
47.218,14
47.268,35
47.318,12
47.368,3
47.418,-15
47.468,-15
47.518,3
47.568,28
47.618,13
47.668,1
47.718,-3
47.768,15
47.818,15
47.868,22
47.918,36
47.968,31
48.018,21
48.068,7
48.118,18
48.168,36
48.218,50
48.268,53
48.318,51
48.368,41
48.418,64
48.468,70
48.518,79
48.568,85
48.618,72
48.668,37
48.718,66
48.768,127
48.818,122
48.868,152
48.918,133
48.968,142
49.018,195
49.068,274
49.118,313
49.168,330
49.218,396
49.268,462
49.318,522
49.368,640
49.418,718
49.468,739
49.518,734
49.568,729
49.618,715
49.668,654
49.718,557
49.768,504
49.818,480
49.868,476
49.918,466
49.968,489
50.018,517
50.068,543
50.118,650
50.168,764
50.218,843
50.268,938
50.318,988
50.368,1019
50.418,1051
50.468,988
50.518,959
50.568,943
50.618,886
50.668,856
50.718,829
50.768,735
50.818,687
50.868,674
50.918,615
50.968,545
51.018,464
51.068,400
51.118,374
51.168,362
51.218,323
51.268,311
51.318,348
51.368,328
51.418,271
51.468,242
51.518,250
51.568,232
51.618,175
51.668,179
51.718,155
51.768,130
51.818,128
51.868,99
51.918,75
51.968,58
52.018,56
52.068,43
52.118,32
52.168,27
52.218,15
52.268,18
52.318,20
52.368,3
52.418,12
52.468,17
52.518,-6
52.568,-7
52.618,13
52.668,12
52.718,34
52.768,38
52.818,17
52.868,9
52.918,5
52.968,13
53.018,40
53.068,27
53.118,-18
53.168,-16
53.218,8
53.268,30
53.318,30
53.368,20
53.418,31
53.468,60
53.518,33
53.568,18
53.618,20
53.668,30
53.718,59
53.768,59
53.818,89
53.868,112
53.918,138
53.968,188
54.018,233
54.068,264
54.118,298
54.168,341
54.218,402
54.268,412
54.318,481
54.368,504
54.418,451
54.468,386
54.518,355
54.568,315
54.618,292
54.668,260
54.718,252
54.768,206
54.818,170
54.868,133
54.918,180
54.968,197
55.018,189
55.068,185
55.118,252
55.168,283
55.218,260
55.268,307
55.318,354
55.368,429
55.418,489
55.468,542
55.518,589
55.568,622
55.618,679
55.668,666
55.718,608
55.768,599
55.818,654
55.868,661
55.918,588
55.968,534
56.018,558
56.068,540
56.118,495
56.168,484
56.218,444
56.268,419
56.318,371
56.368,285
56.418,252
56.468,249
56.518,197
56.568,202
56.618,164
56.668,126
56.718,85
56.768,74
56.818,89
56.868,103
56.918,98
56.968,134
57.018,170
57.068,199
57.118,179
57.168,193
57.218,191
57.268,246
57.318,298
57.368,343
57.418,254
57.468,306
57.518,261
57.568,233
57.618,237
57.668,191
57.718,243
57.768,213
57.818,215
57.868,206
57.918,193
57.968,219
58.018,197
58.068,231
58.118,229
58.168,234
58.218,240
58.268,248
58.318,254
58.368,240
58.418,218
58.468,219
58.518,225
58.568,178
58.618,168
58.668,143
58.718,107
58.768,114
58.818,108
58.868,74
58.918,98
58.968,79
59.018,91
59.068,80
59.118,80
59.168,34
59.218,49
59.268,73
59.318,35
59.368,48
59.418,73
59.468,54
59.518,102
59.568,119
59.618,162
59.668,169
59.718,197
59.768,220
59.818,324
59.868,317
59.918,358
59.968,417
60.018,420
60.068,471
60.118,464
60.168,499
60.218,451
60.268,470
60.318,494
60.368,396
60.418,348
60.468,347
60.518,279
60.568,235
60.618,227
60.668,167
60.718,128
60.768,108
60.818,103
60.868,110
60.918,136
60.968,83
61.018,119
61.068,106
61.118,120
61.168,123
61.218,118
61.268,129
61.318,140
61.368,190
61.418,188
61.468,229
61.518,270
61.568,282
61.618,260
61.668,252
61.718,314
61.768,262
61.818,247
61.868,280
61.918,253
61.968,245
62.018,259
62.068,283
62.118,261
62.168,292
62.218,230
62.268,210
62.318,202
62.368,230
62.418,188
62.468,178
62.518,206
62.568,173
62.618,198
62.668,150
62.718,189
62.768,185
62.818,248
62.868,268
62.918,320
62.968,275
63.018,352
63.068,336
63.118,301
63.168,317
63.218,368
63.268,285
63.318,264
63.368,217
63.418,186
63.468,171
63.518,137
63.568,84
63.618,78
63.668,63
63.718,52
63.768,84
63.818,66
63.868,11
63.918,72
63.968,56
64.018,90
64.068,64
64.118,65
64.168,91
64.218,60
64.268,97
64.318,113
64.368,95
64.418,120
64.468,91
64.518,105
64.568,135
64.618,153
64.668,80
64.718,103
64.768,97
64.818,42
64.868,96
64.918,57
64.968,83
65.018,67
65.068,56
65.118,72
65.168,82
65.218,118
65.268,115
65.318,115
65.368,142
65.418,179
65.468,201
65.518,226
65.568,229
65.618,219
65.668,221
65.718,271
65.768,301
65.818,302
65.868,304
65.918,313
65.968,306
66.018,299
66.068,284
66.118,234
66.168,207
66.218,213
66.268,172
66.318,145
66.368,106
66.418,97
66.468,82
66.518,68
66.568,71
66.618,68
66.668,44
66.718,39
66.768,29
66.818,19
66.868,7
66.918,22
66.968,34
67.018,17
67.068,11
67.118,7
67.168,-12
67.218,3
67.268,9
67.318,11
67.368,11
67.418,5
67.468,-10
67.518,3
67.568,-4
67.618,-25
67.668,-13
67.718,18
67.768,19
67.818,-4
67.868,-14
67.918,-3
67.968,13
68.018,19
68.068,-2
68.118,-26
68.168,-6
68.218,23
68.268,-13
68.318,-26
68.368,-25
68.418,-11
68.468,-12
68.518,-11
68.568,-3
68.618,-13
68.668,2
68.718,38
68.768,33
68.818,30
68.868,35
68.918,42
68.968,22
69.018,4
69.068,18
69.118,44
69.168,58
69.218,52
69.268,47
69.318,44
69.368,68
69.418,58
69.468,23
69.518,17
69.568,13
69.618,8
69.668,16
69.718,27
69.768,20
69.818,4
69.868,-2
69.918,-2
69.968,0

