5.018,1149
5.068,1115
5.118,1091
5.168,1120
5.218,1148
5.268,1030
5.318,1111
5.368,1086
5.418,1081
5.468,1036
5.518,1021
5.568,1087
5.618,1061
5.668,1104
5.718,1068
5.768,976
5.818,1000
5.868,975
5.918,971
5.968,941
6.018,954
6.068,932
6.118,875
6.168,866
6.218,866
6.268,849
6.318,823
6.368,852
6.418,842
6.468,859
6.518,785
6.568,790
6.618,766
6.668,749
6.718,753
6.768,717
6.818,693
6.868,674
6.918,693
6.968,641
7.018,648
7.068,678
7.118,626
7.168,612
7.218,613
7.268,653
7.318,587
7.368,568
7.418,559
7.468,546
7.518,544
7.568,566
7.618,535
7.668,549
7.718,506
7.768,507
7.818,494
7.868,489
7.918,464
7.968,477
8.018,460
8.068,489
8.118,468
8.168,438
8.218,447
8.268,443
8.318,453
8.368,451
8.418,432
8.468,451
8.518,427
8.568,467
8.618,440
8.668,430
8.718,439
8.768,415
8.818,428
8.868,411
8.918,398
8.968,439
9.018,419
9.068,419
9.118,422
9.168,415
9.218,402
9.268,394
9.318,382
9.368,420
9.418,384
9.468,393
9.518,389
9.568,391
9.618,384
9.668,410
9.718,357
9.768,393
9.818,368
9.868,343
9.918,367
9.968,367
10.018,341
10.068,358
10.118,382
10.168,384
10.218,368
10.268,349
10.318,368
10.368,361
10.418,371
10.468,348
10.518,376
10.568,367
10.618,337
10.668,319
10.718,317
10.768,331
10.818,341
10.868,366
10.918,348
10.968,340
11.018,311
11.068,342
11.118,355
11.168,334
11.218,324
11.268,319
11.318,322
11.368,335
11.418,339
11.468,335
11.518,310
11.568,315
11.618,324
11.668,316
11.718,300
11.768,319
11.818,315
11.868,323
11.918,307
11.968,296
12.018,282
12.068,292
12.118,306
12.168,305
12.218,284
12.268,295
12.318,290
12.368,280
12.418,297
12.468,293
12.518,292
12.568,283
12.618,291
12.668,302
12.718,298
12.768,296
12.818,288
12.868,281
12.918,280
12.968,320
13.018,310
13.068,283
13.118,287
13.168,284
13.218,289
13.268,296
13.318,294
13.368,294
13.418,285
13.468,288
13.518,302
13.568,289
13.618,262
13.668,256
13.718,258
13.768,255
13.818,249
13.868,268
13.918,277
13.968,259
14.018,269
14.068,282
14.118,278
14.168,268
14.218,268
14.268,269
14.318,252
14.368,253
14.418,255
14.468,246
14.518,267
14.568,261
14.618,251
14.668,261
14.718,223
14.768,224
14.818,245
14.868,239
14.918,246
14.968,273
15.018,273
15.068,255
15.118,267
15.168,252
15.218,237
15.268,238
15.318,250
15.368,255
15.418,247
15.468,247
15.518,258
15.568,254
15.618,252
15.668,271
15.718,243
15.768,235
15.818,241
15.868,256
15.918,275
15.968,259
16.018,263
16.068,263
16.118,259
16.168,260
16.218,254
16.268,233
16.318,228
16.368,232
16.418,232
16.468,236
16.518,223
16.568,236
16.618,260
16.668,252
16.718,259
16.768,239
16.818,236
16.868,253
16.918,235
16.968,241
17.018,235
17.068,231
17.118,237
17.168,241
17.218,239
17.268,260
17.318,253
17.368,248
17.418,249
17.468,243
17.518,255
17.568,263
17.618,248
17.668,267
17.718,261
17.768,263
17.818,226
17.868,247
17.918,227
17.968,200
18.018,205
18.068,216
18.118,220
18.168,217
18.218,231
18.268,242
18.318,239
18.368,215
18.418,196
18.468,222
18.518,229
18.568,236
18.618,233
18.668,219
18.718,214
18.768,219
18.818,211
18.868,196
18.918,211
18.968,227
19.018,228
19.068,218
19.118,189
19.168,212
19.218,219
19.268,208
19.318,194
19.368,204
19.418,211
19.468,191
19.518,216
19.568,215
19.618,217
19.668,223
19.718,232
19.768,199
19.818,219
19.868,211
19.918,197
19.968,209
20.018,211
20.068,196
20.118,197
20.168,207
20.218,186
20.268,202
20.318,195
20.368,220
20.418,225
20.468,215
20.518,199
20.568,200
20.618,207
20.668,224
20.718,185
20.768,180
20.818,200
20.868,209
20.918,192
20.968,203
21.018,203
21.068,203
21.118,202
21.168,213
21.218,214
21.268,221
21.318,190
21.368,216
21.418,209
21.468,180
21.518,185
21.568,173
21.618,166
21.668,193
21.718,175
21.768,197
21.818,240
21.868,192
21.918,197
21.968,207
22.018,192
22.068,228
22.118,221
22.168,198
22.218,187
22.268,199
22.318,210
22.368,186
22.418,184
22.468,177
22.518,222
22.568,213
22.618,186
22.668,195
22.718,204
22.768,212
22.818,192
22.868,196
22.918,198
22.968,200
23.018,179
23.068,216
23.118,231
23.168,200
23.218,209
23.268,211
23.318,205
23.368,184
23.418,233
23.468,190
23.518,202
23.568,218
23.618,189
23.668,243
23.718,196
23.768,234
23.818,246
23.868,250
23.918,249
23.968,294
24.018,326
24.068,333
24.118,343
24.168,362
24.218,375
24.268,326
24.318,369
24.368,378
24.418,339
24.468,341
24.518,336
24.568,333
24.618,328
24.668,274
24.718,279
24.768,267
24.818,266
24.868,239
24.918,256
24.968,230
25.018,230
25.068,228
25.118,242
25.168,229
25.218,229
25.268,237
25.318,227
25.368,208
25.418,193
25.468,207
25.518,205
25.568,246
25.618,220
25.668,190
25.718,200
25.768,198
25.818,205
25.868,219
25.918,220
25.968,191
26.018,188
26.068,188
26.118,189
26.168,197
26.218,191
26.268,200
26.318,204
26.368,214
26.418,186
26.468,207
26.518,214
26.568,218
26.618,208
26.668,203
26.718,212
26.768,217
26.818,235
26.868,216
26.918,226
26.968,193
27.018,217
27.068,209
27.118,204
27.168,232
27.218,225
27.268,246
27.318,246
27.368,231
27.418,242
27.468,235
27.518,260
27.568,280
27.618,253
27.668,276
27.718,326
27.768,350
27.818,357
27.868,425
27.918,506
27.968,578
28.018,643
28.068,762
28.118,878
28.168,1000
28.218,1114
28.268,1133
28.318,1126
28.368,1145
28.418,1039
28.468,994
28.518,891
28.568,772
28.618,678
28.668,584
28.718,490
28.768,426
28.818,383
28.868,376
28.918,326
28.968,276
29.018,275
29.068,254
29.118,267
29.168,263
29.218,248
29.268,240
29.318,266
29.368,252
29.418,243
29.468,225
29.518,204
29.568,201
29.618,241
29.668,233
29.718,237
29.768,236
29.818,231
29.868,224
29.918,223
29.968,246
30.018,254
30.068,229
30.118,248
30.168,246
30.218,254
30.268,266
30.318,261
30.368,254
30.418,258
30.468,266
30.518,281
30.568,295
30.618,286
30.668,286
30.718,315
30.768,326
30.818,298
30.868,291
30.918,318
30.968,328
31.018,332
31.068,330
31.118,373
31.168,428
31.218,471
31.268,502
31.318,570
31.368,673
31.418,760
31.468,853
31.518,906
31.568,941
31.618,931
31.668,909
31.718,838
31.768,740
31.818,677
31.868,616
31.918,530
31.968,426
32.018,374
32.068,358
32.118,315
32.168,281
32.218,281
32.268,284
32.318,256
32.368,236
32.418,240
32.468,236
32.518,215
32.568,209
32.618,224
32.668,225
32.718,215
32.768,207
32.818,209
32.868,221
32.918,224
32.968,229
33.018,217
33.068,198
33.118,216
33.168,224
33.218,222
33.268,225
33.318,227
33.368,228
33.418,214
33.468,212
33.518,238
33.568,248
33.618,223
33.668,224
33.718,232
33.768,213
33.818,245
33.868,297
33.918,298
33.968,332
34.018,363
34.068,362
34.118,380
34.168,405
34.218,450
34.268,478
34.318,471
34.368,470
34.418,497
34.468,514
34.518,489
34.568,461
34.618,438
34.668,422
34.718,392
34.768,355
34.818,318
34.868,304
34.918,310
34.968,290
35.018,287
35.068,284
35.118,305
35.168,321
35.218,327
35.268,352
35.318,373
35.368,375
35.418,376
35.468,379
35.518,390
35.568,343
35.618,348
35.668,347
35.718,317
35.768,288
35.818,272
35.868,263
35.918,236
35.968,244
36.018,250
36.068,245
36.118,236
36.168,223
36.218,223
36.268,201
36.318,193
36.368,178
36.418,203
36.468,178
36.518,167
36.568,172
36.618,172
36.668,168
36.718,178
36.768,172
36.818,183
36.868,183
36.918,195
36.968,178
37.018,170
37.068,176
37.118,184
37.168,197
37.218,174
37.268,176
37.318,200
37.368,182
37.418,185
37.468,187
37.518,190
37.568,203
37.618,197
37.668,187
37.718,195
37.768,201
37.818,218
37.868,203
37.918,180
37.968,194
38.018,180
38.068,183
38.118,182
38.168,199
38.218,197
38.268,186
38.318,200
38.368,193
38.418,181
38.468,208
38.518,223
38.568,223
38.618,235
38.668,257
38.718,235
38.768,198
38.818,241
38.868,235
38.918,231
38.968,224
39.018,200
39.068,212
39.118,216
39.168,230
39.218,201
39.268,199
39.318,180
39.368,194
39.418,181
39.468,198
39.518,197
39.568,223
39.618,214
39.668,185
39.718,185
39.768,182
39.818,184
39.868,196
39.918,210
39.968,199
40.018,200
40.068,189
40.118,215
40.168,191
40.218,198
40.268,212
40.318,213
40.368,204
40.418,224
40.468,252
40.518,253
40.568,292
40.618,300
40.668,321
40.718,329
40.768,346
40.818,329
40.868,346
40.918,338
40.968,356
41.018,355
41.068,331
41.118,315
41.168,360
41.218,334
41.268,327
41.318,298
41.368,348
41.418,282
41.468,286
41.518,275
41.568,289
41.618,259
41.668,233
41.718,219
41.768,235
41.818,208
41.868,242
41.918,213
41.968,188
42.018,178
42.068,169
42.118,189
42.168,190
42.218,203
42.268,194
42.318,175
42.368,174
42.418,166
42.468,164
42.518,144
42.568,172
42.618,194
42.668,176
42.718,176
42.768,170
42.818,167
42.868,167
42.918,178
42.968,152
43.018,176
43.068,160
43.118,173
43.168,171
43.218,139
43.268,163
43.318,139
43.368,186
43.418,179
43.468,190
43.518,148
43.568,162
43.618,188
43.668,170
43.718,152
43.768,174
43.818,161
43.868,145
43.918,155
43.968,184
44.018,177
44.068,190
44.118,163
44.168,154
44.218,173
44.268,185
44.318,188
44.368,178
44.418,181
44.468,201
44.518,177
44.568,192
44.618,205
44.668,214
44.718,209
44.768,225
44.818,236
44.868,284
44.918,261
44.968,264
45.018,300
45.068,296
45.118,251
45.168,265
45.218,246
45.268,260
45.318,237
45.368,260
45.418,246
45.468,242
45.518,266
45.568,257
45.618,259
45.668,272
45.718,249
45.768,236
45.818,230
45.868,228
45.918,240
45.968,229
46.018,221
46.068,207
46.118,216
46.168,189
46.218,173
46.268,174
46.318,188
46.368,178
46.418,160
46.468,176
46.518,167
46.568,152
46.618,151
46.668,184
46.718,186
46.768,172
46.818,152
46.868,190
46.918,166
46.968,179
47.018,175
47.068,171
47.118,160
47.168,169
47.218,162
47.268,165
47.318,171
47.368,166
47.418,186
47.468,160
47.518,150
47.568,168
47.618,168
47.668,153
47.718,158
47.768,161
47.818,151
47.868,174
47.918,176
47.968,179
48.018,183
48.068,183
48.118,203
48.168,196
48.218,185
48.268,172
48.318,184
48.368,200
48.418,210
48.468,189
48.518,182
48.568,183
48.618,198
48.668,187
48.718,230
48.768,237
48.818,223
48.868,229
48.918,247
48.968,265
49.018,292
49.068,319
49.118,365
49.168,382
49.218,404
49.268,432
49.318,443
49.368,442
49.418,439
49.468,435
49.518,431
49.568,409
49.618,408
49.668,384
49.718,376
49.768,366
49.818,370
49.868,375
49.918,365
49.968,386
50.018,429
50.068,475
50.118,497
50.168,555
50.218,609
50.268,593
50.318,586
50.368,593
50.418,575
50.468,547
50.518,517
50.568,502
50.618,487
50.668,475
50.718,466
50.768,437
50.818,391
50.868,374
50.918,364
50.968,351
51.018,311
51.068,278
51.118,297
51.168,303
51.218,296
51.268,300
51.318,301
51.368,275
51.418,258
51.468,263
51.518,253
51.568,228
51.618,215
51.668,210
51.718,229
51.768,231
51.818,201
51.868,196
51.918,199
51.968,196
52.018,191
52.068,189
52.118,196
52.168,182
52.218,161
52.268,172
52.318,171
52.368,164
52.418,183
52.468,176
52.518,161
52.568,168
52.618,170
52.668,170
52.718,179
52.768,172
52.818,160
52.868,174
52.918,173
52.968,165
53.018,160
53.068,173
53.118,181
53.168,183
53.218,200
53.268,194
53.318,171
53.368,172
53.418,171
53.468,173
53.518,190
53.568,199
53.618,197
53.668,196
53.718,229
53.768,245
53.818,243
53.868,254
53.918,261
53.968,282
54.018,326
54.068,348
54.118,357
54.168,366
54.218,365
54.268,376
54.318,378
54.368,362
54.418,323
54.468,307
54.518,287
54.568,249
54.618,230
54.668,244
54.718,249
54.768,226
54.818,238
54.868,246
54.918,248
54.968,245
55.018,260
55.068,272
55.118,274
55.168,303
55.218,314
55.268,363
55.318,364
55.368,398
55.418,431
55.468,444
55.518,427
55.568,455
55.618,447
55.668,435
55.718,425
55.768,395
55.818,386
55.868,399
55.918,385
55.968,393
56.018,374
56.068,351
56.118,362
56.168,332
56.218,318
56.268,330
56.318,317
56.368,255
56.418,230
56.468,235
56.518,218
56.568,193
56.618,216
56.668,220
56.718,206
56.768,228
56.818,218
56.868,218
56.918,241
56.968,241
57.018,264
57.068,297
57.118,291
57.168,280
57.218,260
57.268,298
57.318,294
57.368,305
57.418,292
57.468,252
57.518,255
57.568,259
57.618,256
57.668,239
57.718,242
57.768,252
57.818,269
57.868,244
57.918,265
57.968,264
58.018,267
58.068,269
58.118,292
58.168,309
58.218,282
58.268,288
58.318,296
58.368,249
58.418,253
58.468,225
58.518,244
58.568,248
58.618,214
58.668,227
58.718,205
58.768,215
58.818,186
58.868,186
58.918,185
58.968,168
59.018,174
59.068,195
59.118,184
59.168,186
59.218,190
59.268,209
59.318,183
59.368,235
59.418,216
59.468,230
59.518,235
59.568,249
59.618,300
59.668,303
59.718,295
59.768,333
59.818,362
59.868,347
59.918,353
59.968,373
60.018,400
60.068,342
60.118,376
60.168,346
60.218,351
60.268,306
60.318,326
60.368,277
60.418,286
60.468,262
60.518,249
60.568,221
60.618,224
60.668,233
60.718,219
60.768,235
60.818,235
60.868,199
60.918,198
60.968,198
61.018,234
61.068,227
61.118,219
61.168,236
61.218,250
61.268,246
61.318,223
61.368,268
61.418,274
61.468,287
61.518,293
61.568,281
61.618,298
61.668,255
61.718,288
61.768,305
61.818,277
61.868,303
61.918,288
61.968,276
62.018,290
62.068,287
62.118,254
62.168,235
62.218,293
62.268,252
62.318,248
62.368,229
62.418,242
62.468,236
62.518,230
62.568,227
62.618,244
62.668,267
62.718,251
62.768,310
62.818,314
62.868,312
62.918,295
62.968,294
63.018,279
63.068,296
63.118,265
63.168,272
63.218,246
63.268,235
63.318,234
63.368,216
63.418,199
63.468,203
63.518,182
63.568,203
63.618,208
63.668,167
63.718,178
63.768,186
63.818,159
63.868,187
63.918,160
63.968,198
64.018,186
64.068,191
64.118,181
64.168,221
64.218,203
64.268,229
64.318,230
64.368,204
64.418,199
64.468,180
64.518,188
64.568,209
64.618,219
64.668,188
64.718,181
64.768,171
64.818,174
64.868,193
64.918,199
64.968,192
65.018,169
65.068,193
65.118,207
65.168,189
65.218,219
65.268,211
65.318,190
65.368,205
65.418,223
65.468,249
65.518,274
65.568,273
65.618,258
65.668,273
65.718,277
65.768,271
65.818,281
65.868,289
65.918,277
65.968,238
66.018,250
66.068,251
66.118,231
66.168,213
66.218,195
66.268,208
66.318,219
66.368,193
66.418,194
66.468,178
66.518,161
66.568,162
66.618,172
66.668,137
66.718,149
66.768,180
66.818,168
66.868,153
66.918,135
66.968,149
67.018,168
67.068,168
67.118,156
67.168,159
67.218,145
67.268,149
67.318,150
67.368,147
67.418,155
67.468,150
67.518,160
67.568,145
67.618,130
67.668,129
67.718,141
67.768,144
67.818,164
67.868,174
67.918,165
67.968,151
68.018,156
68.068,162
68.118,154
68.168,135
68.218,135
68.268,160
68.318,165
68.368,157
68.418,153
68.468,152
68.518,165
68.568,161
68.618,151
68.668,149
68.718,155
68.768,168
68.818,174
68.868,175
68.918,167
68.968,185
69.018,186
69.068,167
69.118,178
69.168,180
69.218,178
69.268,175
69.318,164
69.368,174
69.418,180
69.468,180
69.518,164
69.568,170
69.618,174
69.668,166
69.718,172
69.768,179
69.818,169
69.868,165
69.918,150
69.968,153

